{
  "dependencies": {
    "Microsoft.NETCore.App": {
      "version": "1.1.0",
      "type": "platform"
    },
    "Microsoft.AspNetCore.Mvc": "1.1.0",
    "Microsoft.AspNetCore.Routing": "1.1.0",
    "Microsoft.AspNetCore.Server.IISIntegration": "1.1.0",
    "Microsoft.AspNetCore.Server.Kestrel": "1.1.0",
    "Microsoft.Extensions.Configuration.EnvironmentVariables": "1.1.0",
    "Microsoft.Extensions.Configuration.FileExtensions": "1.1.0",
    "Microsoft.Extensions.Configuration.Json": "1.1.0",
    "Microsoft.Extensions.Configuration.CommandLine": "1.1.0",
    "Microsoft.Extensions.Logging": "1.1.0",
    "Microsoft.Extensions.Logging.Console": "1.1.0",
    "Microsoft.Extensions.Logging.Debug": "1.1.0",
    "Microsoft.Extensions.Options.ConfigurationExtensions": "1.1.0",
    "Microsoft.EntityFrameworkCore": "*",
    "Microsoft.EntityFrameworkCore.Sqlite": "1.0.0",
    "Microsoft.EntityFrameworkCore.Design": "1.1.0-preview1-final"
  },

  "tools": {
    "Microsoft.EntityFrameworkCore.Tools.DotNet": "1.1.0-preview4",
    "Microsoft.EntityFrameworkCore.Tools": "1.1.0-preview2-final"
  },

  "frameworks": {
    "netcoreapp1.1": {
      "imports": [
        "dotnet5.6",
        "portable-net45+win8"
      ]
    }
  },

  "buildOptions": {
    "emitEntryPoint": true,
    "preserveCompilationContext": true
  },

  "runtimeOptions": {
    "configProperties": {
      "System.GC.Server": true
    }
  },

  "publishOptions": {
    "include": [
      "wwwroot",
      "**/*.cshtml",
      "appsettings.json",
      "web.config"
    ]
  },

  "scripts": {
    "postpublish": [ "dotnet publish-iis --publish-folder %publish:OutputPath% --framework %publish:FullTargetFramework%" ]
  },

  "tooling": {
    "defaultNamespace": "TodoApi"
  }
}
